{
    "version": "https://jsonfeed.org/version/1",
    "title": "Alpilean Reviews",
    "description": "",
    "home_page_url": "http://kjislam.gitlab.io/my70",
    "feed_url": "http://kjislam.gitlab.io/my70/feed.json",
    "user_comment": "",
    "icon": "http://kjislam.gitlab.io/my70/media/website/Bathmos-logo.avif",
    "author": {
        "name": "K J Islam"
    },
    "items": [
        {
            "id": "http://kjislam.gitlab.io/my70/alpilean-at-dischem/",
            "url": "http://kjislam.gitlab.io/my70/alpilean-at-dischem/",
            "title": "Alpilean at dischem",
            "summary": "Unfortunately Alpilean is not available at dischem. Alpilean is only avaiable from their original website. Hey everyone! How's it going? I am K J Islam here. Welcome to this concise supplement review. Today, I want to talk to you about a remarkable supplement called Alpilean. It's already transformed the lives of thousands, but there are still folks out there who might not be aware of it. So, in this video, I'm here to provide you with an introduction to everything about Alpilean. If you have any questions or doubts, I'll do my best to address them. Before we dive in, I've got the official website link for Alpilean right here. If you're considering making a purchase, that's the only place to get the genuine product. Now, let's get into it. Alpilean is a natural supplement designed to assist your body in shedding excess weight. It focuses on reducing fat stores and boosting your metabolism. I'll be sharing important precautions and&hellip;",
            "content_html": "<p>Unfortunately Alpilean is not available at dischem. Alpilean is only avaiable from their <a href=\"ttps://cutt.ly/fwpfjv1X\" title=\"original website\" target=\"_blank\" rel=\"noopener noreferrer\">original website</a>. </p>\n<p>Hey everyone! How's it going? I am K J Islam here. Welcome to this concise supplement review. Today, I want to talk to you about a remarkable supplement called Alpilean.</p>\n<figure class=\"post__image post__image--center\"><img  src=\"http://kjislam.gitlab.io/my70/media/posts/29/6-bottles.avif\" alt=\"alpilean 6 bottle\" width=\"345\" height=\"314\"></figure>\n<p>It's already transformed the lives of thousands, but there are still folks out there who might not be aware of it. So, in this video, I'm here to provide you with an introduction to everything about Alpilean. If you have any questions or doubts, I'll do my best to address them. </p>\n<p>Before we dive in, I've got the official website link for Alpilean right <a href=\"ttps://cutt.ly/fwpfjv1X\" title=\"here alpilean\" target=\"_blank\" rel=\"noopener noreferrer\">here</a>. If you're considering making a purchase, that's the only place to get the genuine product. Now, let's get into it.</p>\n<p>Alpilean is a natural supplement designed to assist your body in shedding excess weight. It focuses on reducing fat stores and boosting your metabolism. I'll be sharing important precautions and alerts about Alpilean, so stay tuned.</p>\n<p>The formulation of Alpilean has undergone rigorous testing by scientists and doctors. Their research uncovered an interesting correlation: slim individuals tend to have higher internal body temperatures and faster metabolisms, while overweight individuals often have lower temperatures and slower metabolisms. Alpilean is the result of this scientific insight.</p>\n<p>What Alpilean does is raise your internal body temperature and accelerate your metabolism. This shift allows your body to function more like that of a slim person, promoting weight loss. Notably, Alpilean achieves this without demanding drastic changes to your diet.</p>\n<p>When you consume food, your body enters a fat-burning mode right away, thanks to Alpilean's ingredients. This means you can enjoy your favorite foods without guilt, while your body works to burn off the extra calories.</p>\n<p>The benefits of Alpilean are extensive. It contains unique ingredients sourced from the Himalayas, rich in essential minerals and vitamins. Alpilean enhances your overall health, boosting your energy levels, promoting calorie burning, and even supporting your heart health.</p>\n<figure class=\"post__image post__image--center\"><a href=\"ttps://cutt.ly/fwpfjv1X\" title=\"Alpilean not at dischem\" target=\"_blank\" rel=\"noopener noreferrer\"><img  src=\"http://kjislam.gitlab.io/my70/media/posts/29/check-latest-discounts-on-alpilean.avif\" alt=\"Alpilean official\" width=\"448\" height=\"52\"></figure></a></p>",
            "author": {
                "name": "K J Islam"
            },
            "tags": [
                   "Availability"
            ],
            "date_published": "2023-08-28T18:48:08+05:30",
            "date_modified": "2023-10-07T10:36:23+05:30"
        },
        {
            "id": "http://kjislam.gitlab.io/my70/alpilean-at-clicks-price/",
            "url": "http://kjislam.gitlab.io/my70/alpilean-at-clicks-price/",
            "title": "Alpilean at clicks price",
            "summary": "Yes Alpilean is available with huge discount just at clicks price in the official website. Hello everyone! My name is K J Islam. Welcome to this comprehensive review blog of Alpilean. If you're on the hunt for a healthy and effective way to shed those extra pounds, and you're interested in a natural solution that doesn't require extreme effort, then you're in the right place. I urge you to stick around and pay close attention, as I have a lot of valuable information to share with you today about Alpilean. So, let's dive into the details about Alpilean. If you're interested in purchasing the supplement, I've got you covered with a link to the official website below this article. Remember, Alpilean is exclusively available on their official site, so it's crucial to make your purchase there. Have you ever struggled with weight loss? Have you tried countless methods but found no success? You're not alone. Many of us have been&hellip;",
            "content_html": "<p>Yes <a href=\"http://kjislam.gitlab.io/my70/how-to-lose-weight/\" title=\"Alpilean eviews\" target=\"_blank\" rel=\"noopener noreferrer\">Alpilean</a> is available with huge discount just at clicks price in the official website. Hello everyone! My name is K J Islam.  Welcome to this comprehensive review blog of Alpilean.</p>\n<p>If you're on the hunt for a healthy and effective way to shed those extra pounds, and you're interested in a natural solution that doesn't require extreme effort, then you're in the right place. I urge you to stick around and pay close attention, as I have a lot of valuable information to share with you today about Alpilean.</p>\n<figure class=\"post__image post__image--center\"><img  src=\"http://kjislam.gitlab.io/my70/media/posts/28/abs-woman-realistic-alpilean.avif\" alt=\"alpilean women\" width=\"626\" height=\"385\"></figure>\n<p>So, let's dive into the details about Alpilean. If you're interested in purchasing the supplement, I've got you covered with a link to the official website below this article. Remember, Alpilean is exclusively available on their <a href=\"https://cutt.ly/Bwpfhyq6 \" title=\"Alpilean official site\" target=\"_blank\" rel=\"noopener noreferrer\">official site</a>, so it's crucial to make your purchase there. </p>\n<figure class=\"post__image post__image--center\"><a href=\"https://cutt.ly/ewpfjeHO\" title=\"Alpilean at clicks Price\" target=\"_blank\" rel=\"noopener noreferrer\"><img  src=\"http://kjislam.gitlab.io/my70/media/posts/28/take-this-pill-and-start-losing-fat.png\" alt=\"Alpilean at Clicks price\" width=\"362\" height=\"49\" sizes=\"100vw\" srcset=\"http://kjislam.gitlab.io/my70/media/posts/28/responsive/take-this-pill-and-start-losing-fat-xs.webp 300w ,http://kjislam.gitlab.io/my70/media/posts/28/responsive/take-this-pill-and-start-losing-fat-sm.webp 480w ,http://kjislam.gitlab.io/my70/media/posts/28/responsive/take-this-pill-and-start-losing-fat-md.webp 768w ,http://kjislam.gitlab.io/my70/media/posts/28/responsive/take-this-pill-and-start-losing-fat-lg.webp 1024w ,http://kjislam.gitlab.io/my70/media/posts/28/responsive/take-this-pill-and-start-losing-fat-xl.webp 1360w ,http://kjislam.gitlab.io/my70/media/posts/28/responsive/take-this-pill-and-start-losing-fat-2xl.webp 1600w\"></figure></a></p>\n<p>Have you ever struggled with weight loss? Have you tried countless methods but found no success? You're not alone. Many of us have been through that journey, and that's why I'm here to introduce you to Alpilean. This remarkable supplement offers a new perspective on weight loss and promises to be a game-changer.</p>\n<p>Alpilean is an advanced weight loss formula designed to address a crucial factor in weight management: internal body temperature. Research has shown a strong correlation between metabolism and body temperature, with higher internal temperatures leading to increased metabolism and even higher testosterone levels. Alpilean takes this scientific insight and uses it as the foundation for its approach to weight loss.</p>\n<p>The formula of Alpilean consists of carefully selected natural ingredients, most of which are sourced from the Himalayan Mountains. These exotic components are rich in essential vitamins and minerals. The blend includes ingredients like turmeric, diconut, golden algae, and six unique Alpine nutrients.</p>\n<p>These elements collectively work towards enhancing metabolism, specifically targeting stubborn fat deposits that have been holding you back from achieving your ideal weight.</p>\n<p>Alpilean offers an array of benefits, such as boosting energy levels, promoting calorie burning, and supporting overall heart health. It's designed to optimize your immune system, cholesterol levels, glucose balance, and digestive function. In essence, Alpilean offers a holistic approach to weight loss and well-being.</p>\n<p>However, to reap these benefits, commitment to the treatment is essential. Alpilean is not a quick fix but a gradual process that spans six months. During this time, taking one capsule daily, preferably in the morning, will provide your body with sustained energy and support throughout the day.</p>\n<p>Concerned about results? Alpilean has you covered with a 60-day money-back guarantee. If you're not satisfied with the results, you can contact their customer service to receive a refund.</p>\n<p>In conclusion, it's time to say goodbye to being overweight and hello to a healthier, slimmer you. <a href=\"https://cutt.ly/ewpfjeHO\" title=\"Alpilean's official website\" target=\"_blank\" rel=\"noopener noreferrer\">Alpilean's official website</a> is your gateway to a transformative weight loss journey. Take action and make a positive change in your life. Thank you for reading and have a beautiful day ahead! Goodbye!</p>",
            "author": {
                "name": "K J Islam"
            },
            "tags": [
                   "Price"
            ],
            "date_published": "2023-08-28T18:37:07+05:30",
            "date_modified": "2023-10-07T10:36:45+05:30"
        },
        {
            "id": "http://kjislam.gitlab.io/my70/alpilean-bbb-rating/",
            "url": "http://kjislam.gitlab.io/my70/alpilean-bbb-rating/",
            "title": "Alpilean bbb rating",
            "summary": "Better business Bureau popularly known as BBB is a rating agency. Its based on customer trust. When people find some product not working they write a complain here. Alpilean is not bbb rated. Here's Alpilean BBB complains. Here is a video which is speaking about some doubts on Alpilean. Let's move on and get some good thing about alpilean. I am K. J Islam .Here's a comprehensive review of Alpilean, providing you with an unbiased look at its effectiveness, ingredients, and whether it's the right choice for you. With many videos out there, it's important to get a clear understanding of what Alpilean is, how it works, and whether it can truly deliver results. Alpilean is an advanced weight loss formula designed to target the body's internal temperature, which has been linked to metabolism. Studies have shown that increasing internal body temperature can lead to a boost in metabolism and even higher testosterone levels. Alpilean takes a unique approach by&hellip;",
            "content_html": "<p>Better business Bureau popularly known as BBB is a rating agency. Its based on customer trust. When people find some product not working they write a complain here. Alpilean is not bbb rated. Here's <a href=\"https://www.bbb.org/us/il/mchenry/profile/health-and-medical-products/alpilean-0654-1000044793/complaints\" target=\"_blank\" rel=\"noopener noreferrer\">Alpilean BBB complains.</a></p>\n<p>Here is a video which is speaking about some doubts on Alpilean.</p>\n<div class=\"post__iframe\"><iframe width=\"853\" height=\"480\" src=\"https://www.youtube.com/embed/HuAj2MvYS-g\" title=\"Alpilean: A Supplement Based on False Science\" frameborder=\"0\" allow=\"accelerometer; autoplay; clipboard-write; encrypted-media; gyroscope; picture-in-picture; web-share\" allowfullscreen=\"allowfullscreen\"></iframe></div>\n<p>Let's move on and get some good thing about alpilean. I am K. J Islam .Here's a comprehensive review of Alpilean, providing you with an unbiased look at its effectiveness, ingredients, and whether it's the right choice for you. With many videos out there, it's important to get a clear understanding of what Alpilean is, how it works, and whether it can truly deliver results.</p>\n<p><br>Alpilean is an advanced weight loss formula designed to target the body's internal temperature, which has been linked to metabolism. Studies have shown that increasing internal body temperature can lead to a boost in metabolism and even higher testosterone levels. Alpilean takes a unique approach by focusing on regulating body temperature to support weight loss.</p>\n<figure class=\"post__image post__image--center\"><img  src=\"http://kjislam.gitlab.io/my70/media/posts/27/alpilean-diet-infographics-layout-weight-loss-alp-bathmos-com.avif\" alt=\"\" width=\"626\" height=\"503\"></figure><br><br>The ingredients in Alpilean work together to promote weight loss by increasing metabolism, supporting healthy blood sugar levels, and acting as an appetite suppressant. Notably, Alpilean boasts 100% natural ingredients and has no known side effects, making it a safe option for many individuals. Its ability to raise energy levels and activate calorie-burning cells contributes to its effectiveness.<br><br>Manufactured in a U.S.-based facility, Alpilean comes with a 60-day money-back guarantee, allowing users to give it a fair try. However, it's important to understand that significant weight loss doesn't happen overnight, so commitment and patience are essential.<br><br>As for the ingredients, Alpilean contains a combination of natural components that work synergistically to raise internal body temperature. This, in turn, supports healthy metabolism, digestion, nutrient absorption, and even detoxification. Additionally, Alpilean helps control blood pressure, aids in stress reduction, and supports muscle health.<br><br>Pros of Alpilean include its endorsement by doctors, its all-natural ingredients, energy-boosting effects, and lack of hidden stimulants. It's manufactured in the U.S. and comes with a money-back guarantee, allowing users to give it a fair shot without risk.<br><br>On the flip side, individuals under 18 and pregnant individuals are advised not to use the supplement, and it's recommended to purchase from the official website to avoid scams.<br><br>Alpilean has received generally positive feedback, with many satisfied users reporting success in their weight loss journeys. Scams can be a concern, so it's crucial to buy only from the official website to ensure authenticity.<br><br>In conclusion, Alpilean is effective, offering a different approach to weight loss by targeting internal body temperature and metabolism. While it's not a magic solution, it can be a helpful tool for those struggling to lose weight. Remember, commitment and a healthy lifestyle are key factors in achieving lasting results. If you're interested, you can find the official website link below for a legitimate purchase and take advantage of the 60-day money-back guarantee. Thank you for reading and gaining a better understanding of Alpilean's potential benefits.</p>\n<figure class=\"post__image post__image--center\"><br><a href=\"Alpilean Official\" title=\"Alpilean\" target=\"_blank\" rel=\"noopener noreferrer\"><img  src=\"http://kjislam.gitlab.io/my70/media/posts/27/check-latest-discounts-on-alpilean.png\" alt=\"Alpilean Official Website\" width=\"448\" height=\"52\" sizes=\"100vw\" srcset=\"http://kjislam.gitlab.io/my70/media/posts/27/responsive/check-latest-discounts-on-alpilean-xs.webp 300w ,http://kjislam.gitlab.io/my70/media/posts/27/responsive/check-latest-discounts-on-alpilean-sm.webp 480w ,http://kjislam.gitlab.io/my70/media/posts/27/responsive/check-latest-discounts-on-alpilean-md.webp 768w ,http://kjislam.gitlab.io/my70/media/posts/27/responsive/check-latest-discounts-on-alpilean-lg.webp 1024w ,http://kjislam.gitlab.io/my70/media/posts/27/responsive/check-latest-discounts-on-alpilean-xl.webp 1360w ,http://kjislam.gitlab.io/my70/media/posts/27/responsive/check-latest-discounts-on-alpilean-2xl.webp 1600w\"></figure></a><br><br></p>",
            "author": {
                "name": "K J Islam"
            },
            "tags": [
                   "Refund"
            ],
            "date_published": "2023-08-28T17:22:43+05:30",
            "date_modified": "2023-08-28T17:22:43+05:30"
        },
        {
            "id": "http://kjislam.gitlab.io/my70/is-alpilean-available-at-walmart/",
            "url": "http://kjislam.gitlab.io/my70/is-alpilean-available-at-walmart/",
            "title": "Is Alpilean available at Walmart",
            "summary": "Lets first answer your query. Unfortunately Alpilean is not available at Walmart. Copycat of Alpilean is available here and there but they are all counterfeit. Hello, guys! I'm K J Islam, and today I'm here to talk to all of you about Alpilean. If you're here, I'm sure you're looking for more information about it. So, stay tuned to this article because I'm going to tell you the truth about it. I want to give you some alerts and warnings that you must know before actually purchasing it. Stay with me until the very end. But if you read this article until the end and you feel you need more information about it, I'm going to leave the link for the official website just below . I was struggling to lose weight for a very long time. I went to the gym, tried various diets—everything you can imagine. But nothing was working. I was tired of it all. Then I&hellip;",
            "content_html": "<p>Lets first answer your query. Unfortunately <a href=\"http://kjislam.gitlab.io/my70/how-to-lose-weight/\" title=\"Alpilean Reviews\" target=\"_blank\" rel=\"noopener noreferrer\">Alpilean</a> is not available at Walmart. Copycat  of Alpilean is available here and there but they are all counterfeit. </p>\n<p>Hello, guys!  I'm K J Islam, and today I'm here to talk to all of you about Alpilean. If you're here, I'm sure you're looking for more information about it. So, stay tuned to this article because I'm going to tell you the truth about it.</p>\n<figure class=\"post__image post__image--center\"><img  src=\"http://kjislam.gitlab.io/my70/media/posts/26/alpilean-diet-infographics-layout-weight-loss-alp-bathmos-com.avif\" alt=\"\" width=\"626\" height=\"503\"></figure>\n<p>I want to give you some alerts and warnings that you must know before actually purchasing it. Stay with me until the very end. But if you read this article until the end and you feel you need more information about it, I'm going to leave the link for the official website just below . </p>\n<figure class=\"post__image post__image--center\"><a href=\"https://cutt.ly/ewpfjeHO\" title=\"Alpilean official website\" target=\"_blank\" rel=\"noopener noreferrer\"><img  src=\"http://kjislam.gitlab.io/my70/media/posts/26/check-latest-discounts-on-alpilean.png\" alt=\"alpilean walmart\" width=\"448\" height=\"52\" sizes=\"100vw\" srcset=\"http://kjislam.gitlab.io/my70/media/posts/26/responsive/check-latest-discounts-on-alpilean-xs.webp 300w ,http://kjislam.gitlab.io/my70/media/posts/26/responsive/check-latest-discounts-on-alpilean-sm.webp 480w ,http://kjislam.gitlab.io/my70/media/posts/26/responsive/check-latest-discounts-on-alpilean-md.webp 768w ,http://kjislam.gitlab.io/my70/media/posts/26/responsive/check-latest-discounts-on-alpilean-lg.webp 1024w ,http://kjislam.gitlab.io/my70/media/posts/26/responsive/check-latest-discounts-on-alpilean-xl.webp 1360w ,http://kjislam.gitlab.io/my70/media/posts/26/responsive/check-latest-discounts-on-alpilean-2xl.webp 1600w\"></figure></a><br><br>Now, let's understand what is Alpilean. So, guys, I'm going to share my experience with it and everything that the producer of this product claims about it. I'll also tell you if it really lives up to everything they're talking about. Listen the experience of a customer</p>\n<blockquote>\n<p>I was struggling to lose weight for a very long time. I went to the gym, tried various diets—everything you can imagine. But nothing was working. I was tired of it all. Then I stumbled upon Alpilean.<br><br>I decided to give it a try, and seriously, it was the best decision I've ever made. Alpilean is a 100% natural product made with six ingredients from the opiums. It's unlike anything I've ever seen.</p>\n</blockquote>\n<blockquote>\n<p>It really helped me lose weight in a healthy and fast manner. There's no chemical composition in its formula. I can eat whatever I want and still lose weight. I don't need to go to the gym. I have the body I've always wanted now, thanks to Alpilean.<br><br>They claim that it works because they discovered another cause for weight gain and loss—the temperature of our inner body. Alpilean helps regulate this temperature, which is why we lose weight and experience an accelerated metabolism.<br><br>However, it's not a magical formula. You have to take it every single day to achieve lasting and effective results. Taking just one capsule today and skipping tomorrow won't work.</p>\n</blockquote>\n<p>It's essential to take it daily with plenty of water because water is crucial for absorbing the formula's ingredients and aiding in faster efficacy. I recommend taking it with water and using it for at least three months to see lasting and effective results.<br><br>If you're skeptical or afraid that Alpilean won't work for you, let me assure you it does work. But if you're still hesitant, it's good to know that it comes with an extended 60-day money-back guarantee.</p>\n<p>You can test Alpilean for two months. If you don't see any weight loss or results, you can contact the support team and ask for a refund. They'll return 100% of your money, making it a safe purchase.<br><br>However, I have a caution for you. Alpilean is only sold on its <a href=\"https://cutt.ly/ewpfjeHO\" title=\"official website\" target=\"_blank\" rel=\"noopener noreferrer\">official website</a>. You won't find it in drugstores or on other websites. The original Alpilean with all its benefits can only be purchased from the official website. Remember, the link for the official website is provided in the description of this article.</p>\n<p>You can find all the comprehensive information about Alpilean there, including ingredient lists, testimonials, before-and-after pictures, and the option to purchase the original product.<br><br><span style=\"text-decoration: underline;\">Thank you for reading until here. See you!</span></p>",
            "author": {
                "name": "K J Islam"
            },
            "tags": [
                   "Availability"
            ],
            "date_published": "2023-08-28T16:42:30+05:30",
            "date_modified": "2023-10-07T10:37:12+05:30"
        },
        {
            "id": "http://kjislam.gitlab.io/my70/alpilean-ice-hack-ingredients/",
            "url": "http://kjislam.gitlab.io/my70/alpilean-ice-hack-ingredients/",
            "title": "Alpilean ice hack ingredients",
            "summary": "The words refers to the Alpilean's efficiency to melt body by adjusting your internal body temperature. Alpilean Reviews ice hack is so popular that it almost became de-facto trade mark for Alpilean. Hey, there. How's it going? I am K J Islam. Welcome to this article about the Alpine Ice Hack. If you've heard about the supplement before but still want to know more about it, then read this article until the end. Today, I'm here to explain the entire deal behind the Alpine Ice Hack. I want to share some crucial pieces of information with you all. So, if you don't want to waste your money, avoid regrets, frustration, and complications, just read this article until the end. It's going to be brief, but I promise every minute will be informative. By the end of this article , you'll know everything about the Alpine Ice Hack. Before you rush to purchase the Alpine Ice Hack, did you know that&hellip;",
            "content_html": "<p>The words refers to the Alpilean's efficiency to melt body by adjusting your internal body temperature. <a href=\"http://kjislam.gitlab.io/my70/how-to-lose-weight/\" title=\"Alpilean Reviews\" target=\"_blank\" rel=\"noopener noreferrer\">Alpilean Reviews</a> ice hack is so popular that it almost became de-facto trade mark for Alpilean.</p>\n<p><br>Hey, there. How's it going? I am K J Islam. Welcome to this article about the Alpine Ice Hack. If you've heard about the supplement before but still want to know more about it, then read this article until the end.</p>\n<figure class=\"post__image post__image--center\"><img  src=\"http://kjislam.gitlab.io/my70/media/posts/25/cartoon-character-with-weight-loss-symptoms-alpilean.avif\" alt=\"fat loss\" width=\"353\" height=\"626\"></figure>\n<p>Today, I'm here to explain the entire deal behind the Alpine Ice Hack. I want to share some crucial pieces of information with you all. So, if you don't want to waste your money, avoid regrets, frustration, and complications, just read this article until the end. It's going to be brief, but I promise every minute will be informative. By the end of this article , you'll know everything about the Alpine Ice Hack.<br><br>Before you rush to purchase the Alpine Ice Hack, did you know that it has its very own <a href=\"https://tinyurl.com/2p8k9rh9\" title=\"official website\" target=\"_blank\" rel=\"noopener noreferrer\">official website</a>? That's the only place you should buy it from. There are other places on the internet trying to sell the Alpine Ice Hack, but they're not the real deal. Fakes can lead to bad side effects or no results at all. If you want real results and good health, purchase the original Alpine Ice Hack.</p>\n<p>I've gone to the official website for you and copied the link, which is pasted below this video. This way, I'm making your life easier. It's just a click away, ensuring a safe purchase of the original product without any complications.</p>\n<div class=\"post__iframe\"><iframe width=\"853\" height=\"480\" src=\"https://www.youtube.com/embed/SFy1AHvuGH8\" title=\"What Is Alpilean Ice Hack For Weight Loss? Does Alpine Ice Hack Work 2023 | Healthcare Intersection\" frameborder=\"0\" allow=\"accelerometer; autoplay; clipboard-write; encrypted-media; gyroscope; picture-in-picture; web-share\" allowfullscreen=\"allowfullscreen\"></iframe></div>\n<figure class=\"post__image post__image--center\"><a href=\"https://cutt.ly/ewpfjeHO\" title=\"ICE hack\" target=\"_blank\" rel=\"noopener noreferrer\"><img  src=\"http://kjislam.gitlab.io/my70/media/posts/25/take-this-pill-and-start-losing-fat.avif\" alt=\"Alpine Ice hack\" width=\"362\" height=\"49\"></figure></a><br><br>So, what is the Alpine Ice Hack? Many people ask, but it's pretty simple. Basically, the Alpine Ice Hack is a natural supplement designed to help people lose weight. Let's say you don't have the money for a gym membership, nutritionists, or all the items needed for diets.</p>\n<p>That's where the Alpine Ice Hack comes in. If you're looking for a safe, healthy, and fast way to burn calories and remain healthy, the Alpine Ice Hack is the answer. Its main ingredients are all natural, including six healthy Alpine nutrients that are extremely important and safe for your body's health.<br><br>The supplement contains ingredients like ginger, Margaret orange, diconet, and golden algae. It even has turmeric, which is a fantastic antioxidant for your body. The Alpine Ice Hack helps your body burn stubborn fats, especially localized fats that are hard to eliminate. This supplement also helps remove oxidative stress, boosts immunity, and provides more energy.</p>\n<p>Just remember to take your part seriously. Commit to your treatment. Once you purchase the Alpine Ice Hack from the official website, start your treatment by taking a capsule every day. Don't skip days, as consistency is crucial. Skipping days could slow down results, leading to frustration.<br><br>Take your treatment seriously, one capsule each day. My suggestion is to take it in the morning since the Alpine Ice Hack is designed to provide energy and disposition throughout the day. It's a great way to start your day with a boost.<br><br>The Alpine Ice Hack comes with a two month money-back guarantee. You have two months to test it out. If after those 60 days, you find it's not for you, go to the official website, contact the support team, and request a refund. They'll refund your money. That's how legitimate this supplement is.<br><br>That pretty much covers what I wanted to share, guys. There's much more information you can find on the official website, including people's feedback and stories. Thank you for watching this video. I hope you've enjoyed it.  See you around! Bye!<br><br><br><br><br><br><br></p>",
            "author": {
                "name": "K J Islam"
            },
            "tags": [
                   "Working",
                   "About"
            ],
            "date_published": "2023-08-28T16:21:24+05:30",
            "date_modified": "2023-08-28T16:22:23+05:30"
        },
        {
            "id": "http://kjislam.gitlab.io/my70/do-alpilean-capsules-work/",
            "url": "http://kjislam.gitlab.io/my70/do-alpilean-capsules-work/",
            "title": "Do Alpilean capsules work",
            "summary": "Yes Alpilean really works. It works that's why 92K+ customer has given positive feedback. Alpilean is effective and it works. But it for adult only. Don't use it for children. Hey, there My name is K. J. Islam. Welcome to my review blog about Alpilean. So today, I'm here to tell you the pros, cons, benefits, and the last and most important thing whether alpilean works or not. But I also have some very important and exclusive information that, personally, I think is crucial for you to know before you purchase Alpilean. This is to ensure that you won't have any regrets afterward. All right, so guys, come with me, and let's talk about the whole story behind Alpilean. So, I personally went to the official website and copied the link for everyone, then pasted it below this article . That way, you're just a click away from the official website, and you won't encounter any complications with your purchase.",
            "content_html": "<p>Yes Alpilean really works. It works that's why 92K+ customer has given positive feedback. Alpilean is effective and it works. But it for adult only. Don't use it for children. </p>\n<p>Hey, there My name is K. J. Islam. Welcome to my review blog about Alpilean. So today, I'm here to tell you the pros, cons, benefits, and the last and most important thing whether alpilean works or not. </p>\n<p>But I also have some very important and exclusive information that, personally, I think is crucial for you to know before you purchase Alpilean. This is to ensure that you won't have any regrets afterward. All right, so guys, come with me, and let's talk about the whole story behind Alpilean.</p>\n<figure class=\"post__image post__image--center\"><img  src=\"http://kjislam.gitlab.io/my70/media/posts/24/cartoon-character-with-weight-loss-symptoms-alpilean.avif\" alt=\"\" width=\"353\" height=\"626\"></figure><br><br>Now, if you do want to purchase Alpilean, and I think you do because you're here reading this article, make sure to get the original Alpilean. Alpilean has its very own official website where you can purchase the original one from.</p>\n<p>So, I personally went to the official website and copied the link for everyone, then pasted it below this article . That way, you're just a click away from the official website, and you won't encounter any complications with your purchase. All right, so the link is right <a href=\" https://tinyurl.com/2p8k9rh9\" target=\"_blank\" rel=\"noopener noreferrer\">here</a> waiting for you guys. Make sure you go there once you've finished reading this article. </p>\n<figure class=\"post__image post__image--center\"><a href=\"https://bit.ly/AlpileanVSL\" title=\"Alpilean Video Page\" target=\"_blank\" rel=\"noopener noreferrer\"><img  src=\"http://kjislam.gitlab.io/my70/media/posts/24/check-latest-discounts-on-alpilean.avif\" alt=\"check button\" width=\"448\" height=\"52\"></figure></a><br><br>Alpilean is a dietary supplement created for people who are struggling to lose weight. Due to its natural ingredients—herb extracts, vitamins, minerals—it also contains six very powerful Alpine nutrients that are extremely good for your body. As I was saying, Alpilean was created for people who are struggling to lose weight.</p>\n<p>Alpilean will help you lose weight in places like your arms, belly, legs, and bum—areas where you might have localized fats. We all know how hard it is to remove localized fats, no matter how hard you go to the gym or how strictly you stick to diets. These fats can be stubborn. That's where the Alpilean comes in.</p>\n<p>Thanks to its strong ingredients, Alpilean helps break down localized fats and increases your inner body's temperature, boosting your metabolism to work faster and help burn calories. It's really cool how it works. But that's not the only benefit. Alpilean also helps with high cholesterol, balancing your cholesterol levels.</p>\n<p>It reduces oxidative stress, promoting calmness and peace, and even improves heart health. It offers numerous benefits, including boosting your immune system, energy levels, and overall disposition to help you tackle the day.<br><br>Taking Alpilean in the morning is recommended because it provides energy and disposition for the day ahead. By taking it in the morning, you'll have a lot of energy to burn throughout the day. It's quite beneficial. As you can see, Alpilean has many benefits.</p>\n<p>Just remember to take your treatment seriously—consume one capsule every day, preferably in the morning, with plenty of water. You should maintain this routine until you finish your treatment, and you'll be pleased with the results. You'll be glad you started this treatment journey.<br><br>One remarkable aspect of Alpilean is that it comes with a 60-day money-back guarantee. If you're not satisfied after 60 days of using Alpilean, you can visit the official website and request a refund. They will refund every penny you spent, showcasing their confidence in the supplement.<br><br>That covers pretty much everything I wanted to explain, guys. If you still have doubts, you can visit the official website to learn more about Alpilean. Check out people's feedback to see if you relate to any stories. The official website is right here, ready for you. I hope you all have a beautiful day. Take care, and I'll see you next time. Bye!<br><br><br></p>",
            "author": {
                "name": "K J Islam"
            },
            "tags": [
                   "Working"
            ],
            "date_published": "2023-08-28T16:00:00+05:30",
            "date_modified": "2023-10-07T10:37:48+05:30"
        },
        {
            "id": "http://kjislam.gitlab.io/my70/how-to-take-alpilean-supplement/",
            "url": "http://kjislam.gitlab.io/my70/how-to-take-alpilean-supplement/",
            "title": "How to take Alpilean supplement",
            "summary": "First of all taking Alpilean is very simple. Take a glass of water and one capsule then swallow. That's it, and start melting your body fat. Hello, guys! I'm K J Islam, and today I'm here to talk to all of you about Alpilean. I have made a full blog on it. If you're here, I'm sure you're looking for more information about it. I'm going to tell you all the truth about it. I want to give you some alerts and warnings that you must know before actually purchasing it. If you're skeptical about trying it because you've tried so many things before, be assured, it works. But if you're still hesitant, remember that Alpilean comes with an extended 60-day guarantee. You can test it for two months. If you don't see any results, you can contact the support team for a refund, and they'll give you a hundred percent of your money back. It's a safe purchase. But&hellip;",
            "content_html": "<p>First of all taking Alpilean is very simple. Take a glass of water and one capsule then swallow. That's  it, and start melting your body fat.<br><br>Hello, guys!  I'm K J Islam, and today I'm here to talk to all of you about Alpilean. I have made a full blog on it. If you're here, I'm sure you're looking for more information about it.  I'm going to tell you all the truth about it. I want to give you some alerts and warnings that you must know before actually purchasing it. </p>\n<figure class=\"post__image post__image--center\"><img  src=\"http://kjislam.gitlab.io/my70/media/posts/23/abs-woman-realistic-alpilean.avif\" alt=\"How to take alpilean\" width=\"626\" height=\"385\"></figure><br><br>So stay with me until the very end. But if you watch this video until the end and you think you need more information about it, I'm going to leave the link for the official website just below. Just go to the end of this article and  click on the <a href=\"https://cutt.ly/Bwpfhyq6 \" title=\"How to take Alpilean\" target=\"_blank\" rel=\"noopener noreferrer\">How to take Alpilean</a>, and you'll go directly to the official website.<br><br>Now, let's understand what Alpilean is. So, guys, I'm going to share my experience with it and everything that the producer of this product claims about it. I'll tell you if it really lives up to everything they're talking about.<br><br> Alpilean is a 100% natural product, made with six ingredients from the opiums. Seriously, it's unlike anything you've ever seen. It helped many people to lose weight in a healthy and fast manner because there's no chemical composition in its formula.You can eat whatever I want and still lose weight. You don't need to go to the gym. You have the body You've always wanted, thanks to Alpilean.<br><br>They claim that it works because they discovered another cause that's often overlooked when it comes to gaining and losing weight. It's related to the temperature of our inner body. Alpilean helps regulate this temperature, aiding weight loss and speeding up metabolism. <br><br>However, guys, even though it's different, it's not a magical formula. You have to take it every single day to achieve lasting and effective results. Taking just one capsule won't cut it. Consume it daily with plenty of water. Water is crucial. It helps your body absorb the formula's contents and may even enhance Alpilean's effectiveness. So, I recommend taking it with water and sticking to it for at least three months to see the best results.<br><a href=\"https://cutt.ly/ewpfjeHO\" title=\"Alpilean Official Website Link\" target=\"_blank\" rel=\"noopener noreferrer\">Alpilean Official Website Link</a></p>\n<p>If you're skeptical about trying it because you've tried so many things before, be assured, it works. But if you're still hesitant, remember that Alpilean comes with an extended 60-day guarantee. You can test it for two months. If you don't see any results, you can contact the support team for a refund, and they'll give you a hundred percent of your money back. It's a safe purchase.<br><br>But I have an important alert for you. Alpilean is only sold on their official website. You can't find it in drugstores or other websites. Only the official website offers the original Alpilean with all the benefits I mentioned. Remember, I've left the link for the official website <a href=\" https://tinyurl.com/2p8k9rh9\" target=\"_blank\" rel=\"noopener noreferrer\">here</a>. That's the only link through which you can purchase the authentic Alpilean with all its benefits. Keep that in mind.<br><br>And these were the pieces of information I wanted to share with you, guys. I hope you found this article helpful. Don't forget to check the website for complete information. You'll find the complete list of ingredients, people's testimonials, before-and-after pictures, and a chance to buy the original Alpilean. Thank you so much for watching until here. See you later!</p>",
            "author": {
                "name": "K J Islam"
            },
            "tags": [
                   "Dosage"
            ],
            "date_published": "2023-08-28T15:43:16+05:30",
            "date_modified": "2023-10-07T10:38:23+05:30"
        },
        {
            "id": "http://kjislam.gitlab.io/my70/is-alpilean-safe/",
            "url": "http://kjislam.gitlab.io/my70/is-alpilean-safe/",
            "title": "Is Alpilean safe",
            "summary": "First let me answer your query regarding safety of Alpilean. Alpilean is completely safe when taken as per instruction. If you have any chronic disease I would request to meet a doctor and consult. Hi, My name is K J Islam. Welcome to this review about the Alpilean safety. So today, I'm here to tell you the safety, pros, the cons, benefits, and everything you need to know about the Alpilean. But I also have some very important information that, personally, I think is crucial for you to know before you purchase the Alpilean. This is to ensure that you won't have any regrets afterward. Now, if you do want to purchase Alpilean, make sure to get the original Alpilean. Alpilean has its very own official website where you can purchase the original product from. So, I personally went to the official website, copied the link for everyone. You can reach the official website of Alpilean through link. That way,&hellip;",
            "content_html": "<figure class=\"post__image post__image--center\">First let me answer your query regarding safety of Alpilean. Alpilean is completely safe when taken as per instruction. If you have any chronic disease I would request to meet a doctor and consult. <br><br>Hi,  My name is K J Islam. Welcome to this review about the Alpilean safety. So today, I'm here to tell you the safety, pros, the cons, benefits, and everything you need to know about the Alpilean. But I also have some very important  information that, personally, I think is crucial for you to know before you purchase the Alpilean. This is to ensure that you won't have any regrets afterward. <br><br><img  src=\"http://kjislam.gitlab.io/my70/media/posts/22/Appilean-Weight-Loss.webp\" alt=\"\" width=\"640\" height=\"619\" sizes=\"100vw\" srcset=\"http://kjislam.gitlab.io/my70/media/posts/22/responsive/Appilean-Weight-Loss-xs.webp 300w ,http://kjislam.gitlab.io/my70/media/posts/22/responsive/Appilean-Weight-Loss-sm.webp 480w ,http://kjislam.gitlab.io/my70/media/posts/22/responsive/Appilean-Weight-Loss-md.webp 768w ,http://kjislam.gitlab.io/my70/media/posts/22/responsive/Appilean-Weight-Loss-lg.webp 1024w ,http://kjislam.gitlab.io/my70/media/posts/22/responsive/Appilean-Weight-Loss-xl.webp 1360w ,http://kjislam.gitlab.io/my70/media/posts/22/responsive/Appilean-Weight-Loss-2xl.webp 1600w\"></figure><br>Now, if you do want to purchase Alpilean,  make sure to get the original Alpilean. Alpilean has its very own <a href=\"https://tinyurl.com/2p8k9rh9\" title=\"Alpilean Official Website\" target=\"_blank\" rel=\"noopener noreferrer\">official website</a> where you can purchase the original product from. So, I personally went to the official website, copied the link for everyone.<br><br>You can reach the official website of Alpilean through link. That way, you're just a click away from the official website, and you won't encounter any complications with your purchase. <br><br>So, What is the Alpilean? Alpilean is a dietary supplement created for people who are struggling to lose weight. Due to its natural ingredients—herb extracts, vitamins, minerals—it also contains six powerful Alpine nutrients. They are extremely beneficial for your body. As I was saying, the Alpilean was created for people dealing with weight loss struggles. Alpilean will help you lose weight in areas like your arms, belly, legs, and bum—places where localized fats tend to accumulate. <br><br>We all know how challenging it is to get rid of localized fats, in belly etc, no matter how hard you work out at the gym or try to stick to diets. These fats can be stubborn. That's where the Alpilean comes in. Thanks to its potent ingredients, it breaks down localized fats, raises your inner body temperature, and accelerates your metabolism, aiding in calorie breakdown. <br><br>It's fascinating how it works. But that's not its only benefit. Alpilean also assists with high cholesterol, helping balance your cholesterol levels. It reduces oxidative stress, promoting a sense of calmness and peace, and contributes to heart health. It offers many benefits, even boosting your immune system, energy levels, and overall disposition to help you sail through the day.<br><br>It's best to take Alpilean in the morning since it provides the energy and disposition you need for the day ahead. By taking it in the morning, you'll have ample energy throughout the day to burn. It's quite beneficial. As you can see, Alpilean offers a multitude of advantages.</p>\n<p>Just remember to take your treatment seriously. You should take one capsule every day, preferably in the morning, with plenty of water. Stick to this routine until you complete your treatment, and you'll be thrilled with the results. You'll be glad you embarked on this treatment journey.<br><br>The remarkable thing about Alpilean is that it comes with a two month money-back guarantee. After 60 days of using Alpilean, if you're not satisfied, you can return to the official website and request a refund. They'll promptly refund every penny you spent, ensuring your money isn't wasted. This level of confidence in their supplement is truly impressive. Please watch video below.</p>\n<figure class=\"post__image post__image--center\"><a href=\"https://bit.ly/AlpileanVSL\" title=\"Alpilean Safety\"><img  src=\"http://kjislam.gitlab.io/my70/media/posts/22/check-latest-discounts-on-alpilean.avif\" alt=\"Alpilean\" width=\"448\" height=\"52\"></figure></a></p>\n<p>That pretty much covers what I wanted to explain, guys. If you still have any doubts, you can visit the official website to learn more about Alpilean. Explore people's feedback to see if you can relate to any stories. The official website is right here, waiting for you. I hope you all have a beautiful day. Take care, and I'll see you next time. </p>",
            "author": {
                "name": "K J Islam"
            },
            "tags": [
                   "Safety"
            ],
            "date_published": "2023-08-28T15:24:20+05:30",
            "date_modified": "2023-10-07T10:38:38+05:30"
        },
        {
            "id": "http://kjislam.gitlab.io/my70/alpilean-hoax-or-real/",
            "url": "http://kjislam.gitlab.io/my70/alpilean-hoax-or-real/",
            "title": "Alpilean hoax or real",
            "summary": "Is Alpilean hoax or real. The answer is pretty easy. Alpilean is real. It is effective and tested by 92000+ customers worldwide. Hey there my name is K J Islam and I would welcome to this review about the alpilean. Today I'm here to tell you the pros the cons benefits and everything you need to know about Alpilean. So all right guys come with me and let's talk about the whole story behind Alpine today. If you do want to purchase Alpilean make sure to get the original alpilean avaiable from the official website of alpilean. Alpilean is a dietary supplement that was created for people who are suffering to lose weight but due to its natural ingredients you know its base ingredients are herbs extracts vitamins and minerals It also contains six very powerful Alpine nutrients that are extremely good great for your body so as I was saying the Alpilean was created for people who are struggling&hellip;",
            "content_html": "<p>Is Alpilean hoax or real.  The answer is pretty easy. Alpilean is real. It is effective and tested by 92000+ customers worldwide. </p>\n<p>Hey there  my name is K J Islam and I would welcome  to this review about the alpilean.<br>Today I'm here to tell you the pros the cons benefits and everything you need to know about Alpilean.</p>\n<figure class=\"post__image post__image--center\"><img  src=\"http://kjislam.gitlab.io/my70/media/posts/21/alpilean-home.png\" alt=\"Alpilean single pack\" width=\"726\" height=\"537\" sizes=\"100vw\" srcset=\"http://kjislam.gitlab.io/my70/media/posts/21/responsive/alpilean-home-xs.webp 300w ,http://kjislam.gitlab.io/my70/media/posts/21/responsive/alpilean-home-sm.webp 480w ,http://kjislam.gitlab.io/my70/media/posts/21/responsive/alpilean-home-md.webp 768w ,http://kjislam.gitlab.io/my70/media/posts/21/responsive/alpilean-home-lg.webp 1024w ,http://kjislam.gitlab.io/my70/media/posts/21/responsive/alpilean-home-xl.webp 1360w ,http://kjislam.gitlab.io/my70/media/posts/21/responsive/alpilean-home-2xl.webp 1600w\"></figure><br>I also have some very important and exclusive information that personally I think it's very important that you should know before you purchase Alpilean, just so you don't have any regrets afterwards.</p>\n<p>So all right guys come with me and let's talk about the whole story behind Alpine today.  If you do want to purchase Alpilean make sure to get the original alpilean avaiable from the <a href=\"https://bit.ly/AlipileanOfficialWebsite\" title=\"Official Website of Alpilean\" target=\"_blank\" rel=\"noopener noreferrer\">official website of alpilean</a>.   </p>\n<p><br>Alpilean is a dietary supplement that was created for people who are suffering to lose weight but due to its natural ingredients you know its base ingredients are herbs extracts vitamins and minerals</p>\n<p>It also contains six very powerful Alpine nutrients that are extremely good great for your body so as I was saying the Alpilean  was created for people who are struggling to lose weight.</p>\n<p><br>Now Alpilean will help you guys to lose weight in places like your arms your bellies your legs your bum you know um places where sometimes you have localized fats</p>\n<p>We all know how hard it is to remove localized fats no matter how hard you go to the gym how hard you try and stay on diets. Localized fats are simply impossible to remove but that's where the Alpine comes in due to its  strong ingredients it will help to break<br>down localized fats and it will also increase your inner body's temperature and help your metabolism to work really fast to help break down those calories.</p>\n<p><br>So it's really cool how it works and but that's not like the only benefit it has Alpilean also will help you with high cholesterol. Now you are  going to balance out your cholesterol levels. It will remove oxidative stress if you're a stressed out person you're going to be<br>more calm more peaceful and also it will help you with your heart health.</p>\n<p>So it has many benefits and it will even raise your immunity system and give you disposition and energy to get by the whole single day now it is best to take Alpilean in the morning since it is like it's going to give you energy and disposition.</p>\n<p>It's best to take it in the morning that way you have a whole lot of ton of energy to burn throughout the day and it's pretty cool so as you can see alpilean has a whole lot of benefits.</p>\n<p><br>Just remember take your treatment seriously take one capsule every single day take it in the morning lots and lots of water and that is it do that until you finish your treatment and you will be so happy with your results that you will be glad that you started this<br>treatment.</p>\n<p>Now the cool part about the Alpilean  is that it offers you 60 day money back guarantee after 60 days of taking the alpilean if you are unhappy with it you can go back to the official website and ask for a refund they will simply give you every single penny that<br>you spent back so you won't be throwing your money away which is really really<br>cool.</p>\n<p>That's how confident these guys are about the supplement all right but that is pretty much what I wanted to explain to you guys if you still have any doubts you can go to the <a href=\"https://bit.ly/AlpileanVSL\" title=\"official website\" target=\"_blank\" rel=\"noopener noreferrer\">official website</a> and get to know more about  alpilean over there.</p>\n<p><br>You can also read people's feedbacks to see if you can relate to a story or two and so much more so the official website is just here waiting for you guys. I hope you all<br>have a beautiful day take care and I will see you next time bye.</p>",
            "author": {
                "name": "K J Islam"
            },
            "tags": [
                   "About"
            ],
            "date_published": "2023-08-28T10:47:39+05:30",
            "date_modified": "2023-08-28T10:48:45+05:30"
        },
        {
            "id": "http://kjislam.gitlab.io/my70/how-many-bottles-of-alpilean-should-you-order/",
            "url": "http://kjislam.gitlab.io/my70/how-many-bottles-of-alpilean-should-you-order/",
            "title": "How many bottles of alpilean should you order? ",
            "summary": "It depends on you. You can test with just 1 bottle. But if you are serious then I would you order 6 bottle. Click the image below to go to official website. Before we begin, if you're ready to embark on this transformative journey and want to get your hands on the authentic Alpilean, head straight to their official website. To make things super easy for you, I've included the link below here. Just a single click away from starting your weight loss adventure with Alpilean! Alpilean is designed for those struggling to shed those stubborn pounds in their belly. With its natural blend of herbs, extracts, vitamins, minerals, and six powerful Alpine nutrients, it's a true game-changer. Say goodbye to localized fats in your arms, belly, legs, and bum, because Alpilean is here to break them down. But that's not all it does! It does Alpilean accelerate your body's metabolism, but it also raises your inner temperature, helping to&hellip;",
            "content_html": "<p>It depends on you. You can test with just 1 bottle. But if you are serious then I would you order 6 bottle. Click the  image below to go to official website.</p>\n<figure class=\"post__image post__image--center\"><a href=\"https://tinyurl.com/2u5mvpz6\" title=\"Alpilean 6 Bottle\" target=\"_blank\" rel=\"noopener noreferrer\"><img  src=\"http://kjislam.gitlab.io/my70/media/posts/20/6-bottles.avif\" alt=\"Alpilean 6 Bottle\" width=\"345\" height=\"314\"></figure></a></p>\n<p>Before we begin, if you're ready to embark on this transformative journey and want to get your hands on the authentic <a href=\"https://alp.bathmos.com/\" title=\"Alpilean\" target=\"_blank\" rel=\"noopener noreferrer\">Alpilean</a>, head straight to their <a href=\"https://cutt.ly/Bwpfhyq6 \" title=\"Alpilean official website\" target=\"_blank\" rel=\"noopener noreferrer\">official website</a>. To make things super easy for you, I've included the link below here. Just a single click away from starting your weight loss adventure with Alpilean!</p>\n<figure class=\"post__image post__image--center\"><a href=\"https://cutt.ly/Bwpfhyq6 \" title=\"Alpilean\" target=\"_blank\" rel=\"noopener noreferrer\"><img  src=\"http://kjislam.gitlab.io/my70/media/posts/20/visit-official-website-and-check-discounts.avif\" alt=\"Alpilean Official\" width=\"469\" height=\"50\"></figure></a></p>\n<figure class=\"post__image post__image--center\"><img  src=\"http://kjislam.gitlab.io/my70/media/posts/20/fat-slim-woman-figures-with-alpilean.avif\" alt=\"Fat and Slim Women\" width=\"563\" height=\"626\"></figure>\n<p> Alpilean is designed for those struggling to shed those stubborn pounds in their belly. With its natural blend of herbs, extracts, vitamins, minerals, and six powerful Alpine nutrients, it's a true game-changer. Say goodbye to localized fats in your arms, belly, legs, and bum, because Alpilean is here to break them down. But that's not all it does!</p>\n<p> </p>\n<p>It does Alpilean accelerate your body's metabolism, but it also raises your inner temperature, helping to burn calories like a champ. Imagine having your own personal fat-fighting army, armed with the finest ingredients.</p>\n<p> </p>\n<p>And guess what? Alpilean doesn't stop there. It helps with high cholesterol, oxidative stress, heart health, immunity, and even  energy levels.  It's a complete package!</p>\n<p> </p>\n<p>Now, here's the million-dollar question: How many bottles of Alpilean should you order? The answer lies in sustainable weight loss and staying committed to your journey. Purchasing multiple bottles offers numerous benefits that can't be ignored. Let's explore them further.</p>\n<p> </p>\n<p>You need to be consistent if want to  achieve lasting results. By ordering multiple bottles of Alpilean, you ensure uninterrupted supply, eliminating the risk of running out when you need it most. We all know that weight loss is a marathon, not a sprint, and having a stockpile of Alpilean bottles ensures you won't miss a beat in your routine.</p>\n<p> </p>\n<p>Long-term commitment is another vital aspect of successful weight loss. By having multiple bottles of Alpilean on hand, you make a powerful statement to yourself that you're in it for the long haul. It serves as a tangible reminder of your dedication, reinforcing your motivation and determination to reach your goals.</p>\n<p> </p>\n<p>Let's not forget about the cost-effectiveness. Ordering multiple bottles of Alpilean often comes with attractive discounts and offers. Plus, who doesn't love getting a great deal on a product that can transform their lives? Check the video below.</p>\n<figure class=\"post__image post__image--center\"><img  src=\"http://kjislam.gitlab.io/my70/media/posts/20/alpilean-weight-loss-video.avif\" alt=\"Alpilean Weightloss Video\" width=\"800\" height=\"600\"></figure>\n<p>It's essential to incorporate other healthy lifestyle habits into your weight loss journey. Regular exercise, a balanced diet, quality sleep, and managing stress are all crucial elements for optimal results. </p>\n<p> </p>\n<p>To make the most of your Alpilean experience, take one capsule every single day, preferably in the morning. Stay committed and complete the full course of your treatment. You'll be amazed at the results and glad you took that leap of faith with Alpilean.</p>\n<p> </p>\n<p>And here's the cherry on top: Alpilean offers a 60-day money-back guarantee. That's right! If, for any reason, you're not satisfied with your Alpilean experience after 60 days, you can simply reach out to their official website and request a refund. They stand behind their product with unwavering confidence, ensuring you're fully satisfied with your investment.</p>\n<p> </p>\n<p>But hey, if you still have lingering doubts, head over to the official website for more information on Alpilean. Knowledge is power, and with Alpilean, you're one step closer to unlocking your true potential.</p>\n<p> </p>\n<p>So, my dear readers, seize the opportunity and order your Alpilean bottles today. Let consistency, long-term commitment, and cost-effectiveness be your guiding stars on this weight loss adventure. </p>\n<p> </p>\n<p>Wishing you all a beautiful day filled with determination and success. Take care, and until next time, stay fabulous!.</p>\n<figure class=\"post__image post__image--center\"><a href=\"https://cutt.ly/Bwpfhyq6 \" title=\"Alpilean\" target=\"_blank\" rel=\"noopener noreferrer\"><img  src=\"http://kjislam.gitlab.io/my70/media/posts/20/visit-official-website-and-check-discounts.avif\" alt=\"Alpilean Official\" width=\"469\" height=\"50\"></figure></a></p>",
            "author": {
                "name": "K J Islam"
            },
            "tags": [
                   "Price",
                   "Dosage"
            ],
            "date_published": "2023-08-09T08:49:40+05:30",
            "date_modified": "2023-10-07T10:39:00+05:30"
        }
    ]
}
